ALU_gate/prj/ALU_gate_32bits/ALU_gate_32bits.sim/sim_1/behav/modelsim/simulate.log
# //  ModelSim SE-64 2020.4 Oct 13 2020
# //
# //  Copyright 1991-2020 Mentor Graphics Corporation
# //  All Rights Reserved.
# //
# //  ModelSim SE-64 and its associated documentation contain trade
# //  secrets and commercial or financial information that are the property of
# //  Mentor Graphics Corporation and are privileged, confidential,
# //  and exempt from disclosure under the Freedom of Information Act,
# //  5 U.S.C. Section 552. Furthermore, this information
# //  is prohibited from disclosure under the Trade Secrets Act,
# //  18 U.S.C. Section 1905.
# //
# do {tb_ALU_top_simulate.do}
# vsim -voptargs=""+acc"" -L xil_defaultlib -L unisims_ver -L unimacro_ver -L secureip -lib xil_defaultlib xil_defaultlib.tb_ALU_top xil_defaultlib.glbl 
# Start time: 00:02:36 on May 23,2025
# ** Note: (vsim-3813) Design is being optimized due to module recompilation...
# Loading work.tb_ALU_top(fast)
# Loading work.ALU_top(fast)
# Loading work.pre_adder_32(fast)
# Loading work.glbl(fast)
# 1
# 1
# .main_pane.wave.interior.cs.body.pw.wf
# .main_pane.structure.interior.cs.body.struct
# .main_pane.objects.interior.cs.body.tree
# RANDOM ERROR  A=3c20f378 B=c48a1289 OP=11 @28000
#  Got   R=7796e0ef N=0 V=0 C=0 Z=0
#  ExpectR=7796e0ef N=0 V=0 C=1 Z=0
# RANDOM ERROR  A=de7502bc B=150fdd2a OP=11 @30000
#  Got   R=c9652592 N=1 V=0 C=1 Z=0
#  ExpectR=c9652592 N=1 V=0 C=0 Z=0
# RANDOM ERROR  A=b897be71 B=42f24185 OP=11 @31000
#  Got   R=75a57cec N=0 V=1 C=1 Z=0
#  ExpectR=75a57cec N=0 V=1 C=0 Z=0
# RANDOM ERROR  A=31230762 B=2635fb4c OP=11 @34000
#  Got   R=0aed0c16 N=0 V=0 C=1 Z=0
#  ExpectR=0aed0c16 N=0 V=0 C=0 Z=0
# RANDOM ERROR  A=47b9a18f B=7c6da9f8 OP=11 @35000
#  Got   R=cb4bf797 N=1 V=0 C=0 Z=0
#  ExpectR=cb4bf797 N=1 V=0 C=1 Z=0
# RANDOM ERROR  A=cfc4569f B=ae7d945c OP=11 @36000
#  Got   R=2146c243 N=0 V=0 C=1 Z=0
#  ExpectR=2146c243 N=0 V=0 C=0 Z=0
# RANDOM ERROR  A=7d3599fa B=937dbc26 OP=11 @46000
#  Got   R=e9b7ddd4 N=1 V=1 C=0 Z=0
#  ExpectR=e9b7ddd4 N=1 V=1 C=1 Z=0
# RANDOM ERROR  A=d18bb4a3 B=9799a82f OP=11 @47000
#  Got   R=39f20c74 N=0 V=0 C=1 Z=0
#  ExpectR=39f20c74 N=0 V=0 C=0 Z=0
# RANDOM ERROR  A=afd8565f B=22290d44 OP=11 @48000
#  Got   R=8daf491b N=1 V=0 C=1 Z=0
#  ExpectR=8daf491b N=1 V=0 C=0 Z=0
# RANDOM ERROR  A=b29fb665 B=da8ae2b5 OP=11 @51000
#  Got   R=d814d3b0 N=1 V=0 C=0 Z=0
#  ExpectR=d814d3b0 N=1 V=0 C=1 Z=0
# RANDOM ERROR  A=a3071a46 B=02749b04 OP=11 @62000
#  Got   R=a0927f42 N=1 V=0 C=1 Z=0
#  ExpectR=a0927f42 N=1 V=0 C=0 Z=0
# RANDOM ERROR  A=147cd928 B=9690042d OP=11 @64000
#  Got   R=7decd4fb N=0 V=0 C=0 Z=0
#  ExpectR=7decd4fb N=0 V=0 C=1 Z=0
# RANDOM ERROR  A=334ea766 B=b855c470 OP=11 @68000
#  Got   R=7af8e2f6 N=0 V=0 C=0 Z=0
#  ExpectR=7af8e2f6 N=0 V=0 C=1 Z=0
# RANDOM ERROR  A=3f5a9b7e B=ed8d80db OP=11 @74000
#  Got   R=51cd1aa3 N=0 V=0 C=0 Z=0
#  ExpectR=51cd1aa3 N=0 V=0 C=1 Z=0
# RANDOM ERROR  A=cc01b498 B=25b27b4b OP=11 @79000
#  Got   R=a64f394d N=1 V=0 C=1 Z=0
#  ExpectR=a64f394d N=1 V=0 C=0 Z=0
# RANDOM ERROR  A=070bb90e B=f33466e6 OP=11 @82000
#  Got   R=13d75228 N=0 V=0 C=0 Z=0
#  ExpectR=13d75228 N=0 V=0 C=1 Z=0
# RANDOM ERROR  A=6464e3c8 B=652345ca OP=11 @85000
#  Got   R=ff419dfe N=1 V=0 C=0 Z=0
#  ExpectR=ff419dfe N=1 V=0 C=1 Z=0
# RANDOM ERROR  A=492fd392 B=da269ab4 OP=11 @88000
#  Got   R=6f0938de N=0 V=0 C=0 Z=0
#  ExpectR=6f0938de N=0 V=0 C=1 Z=0
# RANDOM ERROR  A=d095a8a1 B=4765a98e OP=11 @92000
#  Got   R=892fff13 N=1 V=0 C=1 Z=0
#  ExpectR=892fff13 N=1 V=0 C=0 Z=0
# RANDOM ERROR  A=1b60e536 B=bab14875 OP=11 @94000
#  Got   R=60af9cc1 N=0 V=0 C=0 Z=0
#  ExpectR=60af9cc1 N=0 V=0 C=1 Z=0
# RANDOM ERROR  A=29efe953 B=ab196256 OP=11 @101000
#  Got   R=7ed686fd N=0 V=0 C=0 Z=0
#  ExpectR=7ed686fd N=0 V=0 C=1 Z=0
# RANDOM ERROR  A=f166fae2 B=8273e204 OP=11 @102000
#  Got   R=6ef318de N=0 V=0 C=1 Z=0
#  ExpectR=6ef318de N=0 V=0 C=0 Z=0
# RANDOM ERROR  A=13b55527 B=50d5f9a1 OP=11 @106000
#  Got   R=c2df5b86 N=1 V=0 C=0 Z=0
#  ExpectR=c2df5b86 N=1 V=0 C=1 Z=0
# RANDOM ERROR  A=93c12227 B=4249ff84 OP=11 @111000
#  Got   R=517722a3 N=0 V=1 C=1 Z=0
#  ExpectR=517722a3 N=0 V=1 C=0 Z=0
# RANDOM ERROR  A=0aec3515 B=f0b14ee1 OP=11 @122000
#  Got   R=1a3ae634 N=0 V=0 C=0 Z=0
#  ExpectR=1a3ae634 N=0 V=0 C=1 Z=0
# RANDOM ERROR  A=060a5d0c B=b8ade671 OP=11 @126000
#  Got   R=4d5c769b N=0 V=0 C=0 Z=0
#  ExpectR=4d5c769b N=0 V=0 C=1 Z=0
# RANDOM ERROR  A=6e8af5dd B=86dcf00d OP=11 @130000
#  Got   R=e7ae05d0 N=1 V=1 C=0 Z=0
#  ExpectR=e7ae05d0 N=1 V=1 C=1 Z=0
# RANDOM ERROR  A=bde0d27b B=47e2738f OP=11 @132000
#  Got   R=75fe5eec N=0 V=1 C=1 Z=0
#  ExpectR=75fe5eec N=0 V=1 C=0 Z=0
# RANDOM ERROR  A=25f2034b B=ae68305c OP=11 @143000
#  Got   R=7789d2ef N=0 V=0 C=0 Z=0
#  ExpectR=7789d2ef N=0 V=0 C=1 Z=0
# RANDOM ERROR  A=746affe8 B=a5e79e4b OP=11 @147000
#  Got   R=ce83619d N=1 V=1 C=0 Z=0
#  ExpectR=ce83619d N=1 V=1 C=1 Z=0
# RANDOM ERROR  A=64e165c9 B=9ca70439 OP=11 @149000
#  Got   R=c83a6190 N=1 V=1 C=0 Z=0
#  ExpectR=c83a6190 N=1 V=1 C=1 Z=0
# RANDOM ERROR  A=e82b96d0 B=b759ea6e OP=11 @157000
#  Got   R=30d1ac62 N=0 V=0 C=1 Z=0
#  ExpectR=30d1ac62 N=0 V=0 C=0 Z=0
# RANDOM ERROR  A=6d8b87db B=535277a6 OP=11 @158000
#  Got   R=1a391035 N=0 V=0 C=1 Z=0
#  ExpectR=1a391035 N=0 V=0 C=0 Z=0
# RANDOM ERROR  A=e2ecdac5 B=9827fa30 OP=11 @169000
#  Got   R=4ac4e095 N=0 V=0 C=1 Z=0
#  ExpectR=4ac4e095 N=0 V=0 C=0 Z=0
# RANDOM ERROR  A=7c41aff8 B=8376ac06 OP=11 @171000
#  Got   R=f8cb03f2 N=1 V=1 C=0 Z=0
#  ExpectR=f8cb03f2 N=1 V=1 C=1 Z=0
# RANDOM ERROR  A=1e664d3c B=d4b5e6a9 OP=11 @179000
#  Got   R=49b06693 N=0 V=0 C=0 Z=0
#  ExpectR=49b06693 N=0 V=0 C=1 Z=0
# RANDOM ERROR  A=5cd20db9 B=098e2d13 OP=11 @181000
#  Got   R=5343e0a6 N=0 V=0 C=1 Z=0
#  ExpectR=5343e0a6 N=0 V=0 C=0 Z=0
# RANDOM ERROR  A=32dc4165 B=28c62751 OP=11 @182000
#  Got   R=0a161a14 N=0 V=0 C=1 Z=0
#  ExpectR=0a161a14 N=0 V=0 C=0 Z=0
# RANDOM ERROR  A=ddd146bb B=870cee0e OP=11 @193000
#  Got   R=56c458ad N=0 V=0 C=1 Z=0
#  ExpectR=56c458ad N=0 V=0 C=0 Z=0
# RANDOM ERROR  A=acecdc59 B=5ca26fb9 OP=11 @195000
#  Got   R=504a6ca0 N=0 V=1 C=1 Z=0
#  ExpectR=504a6ca0 N=0 V=1 C=0 Z=0
# RANDOM ERROR  A=7af6abf5 B=a620904c OP=11 @201000
#  Got   R=d4d61ba9 N=1 V=1 C=0 Z=0
#  ExpectR=d4d61ba9 N=1 V=1 C=1 Z=0
# RANDOM ERROR  A=23400b46 B=83fa6407 OP=11 @209000
#  Got   R=9f45a73f N=1 V=1 C=0 Z=0
#  ExpectR=9f45a73f N=1 V=1 C=1 Z=0
# RANDOM ERROR  A=55861fab B=6826d9d0 OP=11 @214000
#  Got   R=ed5f45db N=1 V=0 C=0 Z=0
#  ExpectR=ed5f45db N=1 V=0 C=1 Z=0
# RANDOM ERROR  A=5515d1aa B=0d12031a OP=11 @221000
#  Got   R=4803ce90 N=0 V=0 C=1 Z=0
#  ExpectR=4803ce90 N=0 V=0 C=0 Z=0
# RANDOM ERROR  A=792c03f2 B=4483ad89 OP=11 @224000
#  Got   R=34a85669 N=0 V=0 C=1 Z=0
#  ExpectR=34a85669 N=0 V=0 C=0 Z=0
# RANDOM ERROR  A=92f91225 B=67e857cf OP=11 @226000
#  Got   R=2b10ba56 N=0 V=1 C=1 Z=0
#  ExpectR=2b10ba56 N=0 V=1 C=0 Z=0
# RANDOM ERROR  A=412dfd82 B=82344204 OP=11 @228000
#  Got   R=bef9bb7e N=1 V=1 C=0 Z=0
#  ExpectR=bef9bb7e N=1 V=1 C=1 Z=0
# RANDOM ERROR  A=0d63751a B=38e6a771 OP=11 @237000
#  Got   R=d47ccda9 N=1 V=0 C=0 Z=0
#  ExpectR=d47ccda9 N=1 V=0 C=1 Z=0
# RANDOM ERROR  A=ff202efe B=1b0f0d36 OP=11 @245000
#  Got   R=e41121c8 N=1 V=0 C=1 Z=0
#  ExpectR=e41121c8 N=1 V=0 C=0 Z=0
# RANDOM ERROR  A=7dddabfb B=b58d7c6b OP=11 @246000
#  Got   R=c8502f90 N=1 V=1 C=0 Z=0
#  ExpectR=c8502f90 N=1 V=1 C=1 Z=0
# RANDOM ERROR  A=d3666ea6 B=ea7626d4 OP=11 @248000
#  Got   R=e8f047d2 N=1 V=0 C=0 Z=0
#  ExpectR=e8f047d2 N=1 V=0 C=1 Z=0
# RANDOM ERROR  A=a3643246 B=1e74cb3c OP=11 @252000
#  Got   R=84ef670a N=1 V=0 C=1 Z=0
#  ExpectR=84ef670a N=1 V=0 C=0 Z=0
# RANDOM ERROR  A=1699d12d B=b8760270 OP=11 @258000
#  Got   R=5e23cebd N=0 V=0 C=0 Z=0
#  ExpectR=5e23cebd N=0 V=0 C=1 Z=0
# RANDOM ERROR  A=ee4ee6dc B=bc781078 OP=11 @263000
#  Got   R=31d6d664 N=0 V=0 C=1 Z=0
#  ExpectR=31d6d664 N=0 V=0 C=0 Z=0
# RANDOM ERROR  A=afed265f B=11c05b23 OP=11 @264000
#  Got   R=9e2ccb3c N=1 V=0 C=1 Z=0
#  ExpectR=9e2ccb3c N=1 V=0 C=0 Z=0
# RANDOM ERROR  A=e38e22c7 B=927fa424 OP=11 @267000
#  Got   R=510e7ea3 N=0 V=0 C=1 Z=0
#  ExpectR=510e7ea3 N=0 V=0 C=0 Z=0
# RANDOM ERROR  A=ac05a058 B=a85a6a50 OP=11 @270000
#  Got   R=03ab3608 N=0 V=0 C=1 Z=0
#  ExpectR=03ab3608 N=0 V=0 C=0 Z=0
# RANDOM ERROR  A=03703906 B=aa138054 OP=11 @272000
#  Got   R=595cb8b2 N=0 V=0 C=0 Z=0
#  ExpectR=595cb8b2 N=0 V=0 C=1 Z=0
# RANDOM ERROR  A=e455f0c8 B=24673948 OP=11 @273000
#  Got   R=bfeeb780 N=1 V=0 C=1 Z=0
#  ExpectR=bfeeb780 N=1 V=0 C=0 Z=0
# RANDOM ERROR  A=581653b0 B=fddf82fb OP=11 @276000
#  Got   R=5a36d0b5 N=0 V=0 C=0 Z=0
#  ExpectR=5a36d0b5 N=0 V=0 C=1 Z=0
# RANDOM ERROR  A=2af17355 B=178b972f OP=11 @279000
#  Got   R=1365dc26 N=0 V=0 C=1 Z=0
#  ExpectR=1365dc26 N=0 V=0 C=0 Z=0
# RANDOM ERROR  A=3f25ef7e B=6b299dd6 OP=11 @283000
#  Got   R=d3fc51a8 N=1 V=0 C=0 Z=0
#  ExpectR=d3fc51a8 N=1 V=0 C=1 Z=0
# RANDOM ERROR  A=5fe3cbbf B=22eadb45 OP=11 @285000
#  Got   R=3cf8f07a N=0 V=0 C=1 Z=0
#  ExpectR=3cf8f07a N=0 V=0 C=0 Z=0
# RANDOM ERROR  A=309cdb61 B=bde3487b OP=11 @295000
#  Got   R=72b992e6 N=0 V=0 C=0 Z=0
#  ExpectR=72b992e6 N=0 V=0 C=1 Z=0
# RANDOM ERROR  A=89646012 B=7e29b3fc OP=11 @302000
#  Got   R=0b3aac16 N=0 V=1 C=1 Z=0
#  ExpectR=0b3aac16 N=0 V=1 C=0 Z=0
# RANDOM ERROR  A=ff73cafe B=3a096b74 OP=11 @305000
#  Got   R=c56a5f8a N=1 V=0 C=1 Z=0
#  ExpectR=c56a5f8a N=1 V=0 C=0 Z=0
# RANDOM ERROR  A=7132bbe2 B=f16948e2 OP=11 @306000
#  Got   R=7fc97300 N=0 V=0 C=0 Z=0
#  ExpectR=7fc97300 N=0 V=0 C=1 Z=0
# RANDOM ERROR  A=791189f2 B=5ee97bbd OP=11 @308000
#  Got   R=1a280e35 N=0 V=0 C=1 Z=0
#  ExpectR=1a280e35 N=0 V=0 C=0 Z=0
# RANDOM ERROR  A=1df61f3b B=9aa02435 OP=11 @311000
#  Got   R=8355fb06 N=1 V=1 C=0 Z=0
#  ExpectR=8355fb06 N=1 V=1 C=1 Z=0
# RANDOM ERROR  A=fd52d8fa B=e69dd0cd OP=11 @315000
#  Got   R=16b5082d N=0 V=0 C=1 Z=0
#  ExpectR=16b5082d N=0 V=0 C=0 Z=0
# RANDOM ERROR  A=dac986b5 B=f42082e8 OP=11 @316000
#  Got   R=e6a903cd N=1 V=0 C=0 Z=0
#  ExpectR=e6a903cd N=1 V=0 C=1 Z=0
# RANDOM ERROR  A=c5cb548b B=094bd312 OP=11 @323000
#  Got   R=bc7f8179 N=1 V=0 C=1 Z=0
#  ExpectR=bc7f8179 N=1 V=0 C=0 Z=0
# RANDOM ERROR  A=6e8d45dd B=f612c8ec OP=11 @329000
#  Got   R=787a7cf1 N=0 V=0 C=0 Z=0
#  ExpectR=787a7cf1 N=0 V=0 C=1 Z=0
# RANDOM ERROR  A=7fdbb3ff B=3c338578 OP=11 @330000
#  Got   R=43a82e87 N=0 V=0 C=1 Z=0
#  ExpectR=43a82e87 N=0 V=0 C=0 Z=0
# RANDOM ERROR  A=13d1f727 B=7dca0ffb OP=11 @331000
#  Got   R=9607e72c N=1 V=0 C=0 Z=0
#  ExpectR=9607e72c N=1 V=0 C=1 Z=0
# RANDOM ERROR  A=bb062876 B=3a982575 OP=11 @336000
#  Got   R=806e0301 N=1 V=0 C=1 Z=0
#  ExpectR=806e0301 N=1 V=0 C=0 Z=0
# RANDOM ERROR  A=86c8320d B=48c3b791 OP=11 @347000
#  Got   R=3e047a7c N=0 V=1 C=1 Z=0
#  ExpectR=3e047a7c N=0 V=1 C=0 Z=0
# RANDOM ERROR  A=d51cb4aa B=d01df0a0 OP=11 @353000
#  Got   R=04fec40a N=0 V=0 C=1 Z=0
#  ExpectR=04fec40a N=0 V=0 C=0 Z=0
# RANDOM ERROR  A=68cd09d1 B=5d8363bb OP=11 @355000
#  Got   R=0b49a616 N=0 V=0 C=1 Z=0
#  ExpectR=0b49a616 N=0 V=0 C=0 Z=0
# RANDOM ERROR  A=3e8ed57d B=2c402158 OP=11 @356000
#  Got   R=124eb425 N=0 V=0 C=1 Z=0
#  ExpectR=124eb425 N=0 V=0 C=0 Z=0
# RANDOM ERROR  A=26c7134d B=39bfc773 OP=11 @359000
#  Got   R=ed074bda N=1 V=0 C=0 Z=0
#  ExpectR=ed074bda N=1 V=0 C=1 Z=0
# RANDOM ERROR  A=c0ad8081 B=98b4dc31 OP=11 @376000
#  Got   R=27f8a450 N=0 V=0 C=1 Z=0
#  ExpectR=27f8a450 N=0 V=0 C=0 Z=0
# RANDOM ERROR  A=24839b49 B=8569fa0a OP=11 @380000
#  Got   R=9f19a13f N=1 V=1 C=0 Z=0
#  ExpectR=9f19a13f N=1 V=1 C=1 Z=0
# RANDOM ERROR  A=97dde22f B=c1cf5a83 OP=11 @383000
#  Got   R=d60e87ac N=1 V=0 C=0 Z=0
#  ExpectR=d60e87ac N=1 V=0 C=1 Z=0
# RANDOM ERROR  A=1e32673c B=23301b46 OP=11 @385000
#  Got   R=fb024bf6 N=1 V=0 C=0 Z=0
#  ExpectR=fb024bf6 N=1 V=0 C=1 Z=0
# RANDOM ERROR  A=39092f72 B=5136a5a2 OP=11 @387000
#  Got   R=e7d289d0 N=1 V=0 C=0 Z=0
#  ExpectR=e7d289d0 N=1 V=0 C=1 Z=0
# RANDOM ERROR  A=b5f8fa6b B=55ff23ab OP=11 @401000
#  Got   R=5ff9d6c0 N=0 V=1 C=1 Z=0
#  ExpectR=5ff9d6c0 N=0 V=1 C=0 Z=0
# RANDOM ERROR  A=84a8e809 B=b62d846c OP=11 @405000
#  Got   R=ce7b639d N=1 V=0 C=0 Z=0
#  ExpectR=ce7b639d N=1 V=0 C=1 Z=0
# RANDOM ERROR  A=abe8c057 B=3b11f376 OP=11 @407000
#  Got   R=70d6cce1 N=0 V=1 C=1 Z=0
#  ExpectR=70d6cce1 N=0 V=1 C=0 Z=0
# RANDOM ERROR  A=5a45bdb4 B=8ecaa21d OP=11 @408000
#  Got   R=cb7b1b97 N=1 V=1 C=0 Z=0
#  ExpectR=cb7b1b97 N=1 V=1 C=1 Z=0
# RANDOM ERROR  A=42955d85 B=42e39d85 OP=11 @422000
#  Got   R=ffb1c000 N=1 V=0 C=0 Z=0
#  ExpectR=ffb1c000 N=1 V=0 C=1 Z=0
# RANDOM ERROR  A=1e85ed3d B=28b1f151 OP=11 @424000
#  Got   R=f5d3fbec N=1 V=0 C=0 Z=0
#  ExpectR=f5d3fbec N=1 V=0 C=1 Z=0
# RANDOM ERROR  A=24d44749 B=89de2c13 OP=11 @430000
#  Got   R=9af61b36 N=1 V=1 C=0 Z=0
#  ExpectR=9af61b36 N=1 V=1 C=1 Z=0
# RANDOM ERROR  A=600b2dc0 B=a5b9424b OP=11 @439000
#  Got   R=ba51eb75 N=1 V=1 C=0 Z=0
#  ExpectR=ba51eb75 N=1 V=1 C=1 Z=0
# RANDOM ERROR  A=408a2981 B=d932d8b2 OP=11 @440000
#  Got   R=675750cf N=0 V=0 C=0 Z=0
#  ExpectR=675750cf N=0 V=0 C=1 Z=0
# RANDOM ERROR  A=7e7f21fc B=dfdc3ebf OP=11 @445000
#  Got   R=9ea2e33d N=1 V=1 C=0 Z=0
#  ExpectR=9ea2e33d N=1 V=1 C=1 Z=0
# RANDOM ERROR  A=38422d70 B=9491aa29 OP=11 @455000
#  Got   R=a3b08347 N=1 V=1 C=0 Z=0
#  ExpectR=a3b08347 N=1 V=1 C=1 Z=0
# RANDOM ERROR  A=4b5b7196 B=6b825dd7 OP=11 @456000
#  Got   R=dfd913bf N=1 V=0 C=0 Z=0
#  ExpectR=dfd913bf N=1 V=0 C=1 Z=0
# RANDOM ERROR  A=38eedd71 B=94232228 OP=11 @459000
#  Got   R=a4cbbb49 N=1 V=1 C=0 Z=0
#  ExpectR=a4cbbb49 N=1 V=1 C=1 Z=0
# RANDOM ERROR  A=3058ef60 B=273fbf4e OP=11 @466000
#  Got   R=09193012 N=0 V=0 C=1 Z=0
#  ExpectR=09193012 N=0 V=0 C=0 Z=0
# RANDOM ERROR  A=7c502bf8 B=c6ad048d OP=11 @469000
#  Got   R=b5a3276b N=1 V=1 C=0 Z=0
#  ExpectR=b5a3276b N=1 V=1 C=1 Z=0
# RANDOM ERROR  A=10c2c521 B=12957f25 OP=11 @472000
#  Got   R=fe2d45fc N=1 V=0 C=0 Z=0
#  ExpectR=fe2d45fc N=1 V=0 C=1 Z=0
# RANDOM ERROR  A=34243768 B=cbb9e297 OP=11 @477000
#  Got   R=686a54d1 N=0 V=0 C=0 Z=0
#  ExpectR=686a54d1 N=0 V=0 C=1 Z=0
# RANDOM ERROR  A=9bcdf237 B=29349952 OP=11 @478000
#  Got   R=729958e5 N=0 V=1 C=1 Z=0
#  ExpectR=729958e5 N=0 V=1 C=0 Z=0
# RANDOM ERROR  A=66c259cd B=7eb00bfd OP=11 @494000
#  Got   R=e8124dd0 N=1 V=0 C=0 Z=0
#  ExpectR=e8124dd0 N=1 V=0 C=1 Z=0
# RANDOM ERROR  A=4eee339d B=7e4a0ffc OP=11 @501000
#  Got   R=d0a423a1 N=1 V=0 C=0 Z=0
#  ExpectR=d0a423a1 N=1 V=0 C=1 Z=0
# RANDOM ERROR  A=ae7a545c B=40f9f181 OP=11 @503000
#  Got   R=6d8062db N=0 V=1 C=1 Z=0
#  ExpectR=6d8062db N=0 V=1 C=0 Z=0
# RANDOM ERROR  A=c762268e B=c9788892 OP=11 @515000
#  Got   R=fde99dfc N=1 V=0 C=0 Z=0
#  ExpectR=fde99dfc N=1 V=0 C=1 Z=0
# RANDOM ERROR  A=c68ec48d B=02d50905 OP=11 @519000
#  Got   R=c3b9bb88 N=1 V=0 C=1 Z=0
#  ExpectR=c3b9bb88 N=1 V=0 C=0 Z=0
# RANDOM ERROR  A=679709cf B=a636884c OP=11 @520000
#  Got   R=c1608183 N=1 V=1 C=0 Z=0
#  ExpectR=c1608183 N=1 V=1 C=1 Z=0
# RANDOM ERROR  A=d3ed4ca7 B=0c1dbd18 OP=11 @521000
#  Got   R=c7cf8f8f N=1 V=0 C=1 Z=0
#  ExpectR=c7cf8f8f N=1 V=0 C=0 Z=0
# RANDOM ERROR  A=366d676c B=87b3680f OP=11 @522000
#  Got   R=aeb9ff5d N=1 V=1 C=0 Z=0
#  ExpectR=aeb9ff5d N=1 V=1 C=1 Z=0
# RANDOM ERROR  A=6847f1d0 B=17b1cd2f OP=11 @523000
#  Got   R=509624a1 N=0 V=0 C=1 Z=0
#  ExpectR=509624a1 N=0 V=0 C=0 Z=0
# RANDOM ERROR  A=d022e8a0 B=5982e1b3 OP=11 @526000
#  Got   R=76a006ed N=0 V=1 C=1 Z=0
#  ExpectR=76a006ed N=0 V=1 C=0 Z=0
# RANDOM ERROR  A=3d09457a B=9ba78037 OP=11 @532000
#  Got   R=a161c543 N=1 V=1 C=0 Z=0
#  ExpectR=a161c543 N=1 V=1 C=1 Z=0
# RANDOM ERROR  A=dff0bcbf B=48e2d791 OP=11 @538000
#  Got   R=970de52e N=1 V=0 C=1 Z=0
#  ExpectR=970de52e N=1 V=0 C=0 Z=0
# RANDOM ERROR  A=ba8b9475 B=0c27cd18 OP=11 @540000
#  Got   R=ae63c75d N=1 V=0 C=1 Z=0
#  ExpectR=ae63c75d N=1 V=0 C=0 Z=0
# RANDOM ERROR  A=77012fee B=8895ba11 OP=11 @541000
#  Got   R=ee6b75dd N=1 V=1 C=0 Z=0
#  ExpectR=ee6b75dd N=1 V=1 C=1 Z=0
# RANDOM ERROR  A=86b1140d B=ec1446d8 OP=11 @542000
#  Got   R=9a9ccd35 N=1 V=0 C=0 Z=0
#  ExpectR=9a9ccd35 N=1 V=0 C=1 Z=0
# RANDOM ERROR  A=e256d0c4 B=76f5e9ed OP=11 @556000
#  Got   R=6b60e6d7 N=0 V=1 C=1 Z=0
#  ExpectR=6b60e6d7 N=0 V=1 C=0 Z=0
# RANDOM ERROR  A=a67f2a4c B=f1d1a6e3 OP=11 @558000
#  Got   R=b4ad8369 N=1 V=0 C=0 Z=0
#  ExpectR=b4ad8369 N=1 V=0 C=1 Z=0
# RANDOM ERROR  A=e9c860d3 B=c055bc80 OP=11 @561000
#  Got   R=2972a453 N=0 V=0 C=1 Z=0
#  ExpectR=2972a453 N=0 V=0 C=0 Z=0
# RANDOM ERROR  A=e5fdfacb B=0afcf915 OP=11 @564000
#  Got   R=db0101b6 N=1 V=0 C=1 Z=0
#  ExpectR=db0101b6 N=1 V=0 C=0 Z=0
# RANDOM ERROR  A=dd9d70bb B=e466e6c8 OP=11 @570000
#  Got   R=f93689f3 N=1 V=0 C=0 Z=0
#  ExpectR=f93689f3 N=1 V=0 C=1 Z=0
# RANDOM ERROR  A=d90912b2 B=5423efa8 OP=11 @573000
#  Got   R=84e5230a N=1 V=0 C=1 Z=0
#  ExpectR=84e5230a N=1 V=0 C=0 Z=0
# RANDOM ERROR  A=c508cc8a B=04958b09 OP=11 @586000
#  Got   R=c0734181 N=1 V=0 C=1 Z=0
#  ExpectR=c0734181 N=1 V=0 C=0 Z=0
# RANDOM ERROR  A=c4a52e89 B=07cd2d0f OP=11 @591000
#  Got   R=bcd8017a N=1 V=0 C=1 Z=0
#  ExpectR=bcd8017a N=1 V=0 C=0 Z=0
# RANDOM ERROR  A=0bd7ab17 B=17fe9f2f OP=11 @593000
#  Got   R=f3d90be8 N=1 V=0 C=0 Z=0
#  ExpectR=f3d90be8 N=1 V=0 C=1 Z=0
# RANDOM ERROR  A=1608ab2c B=be0c307c OP=11 @594000
#  Got   R=57fc7ab0 N=0 V=0 C=0 Z=0
#  ExpectR=57fc7ab0 N=0 V=0 C=1 Z=0
# RANDOM ERROR  A=cddb7a9b B=76c657ed OP=11 @601000
#  Got   R=571522ae N=0 V=1 C=1 Z=0
#  ExpectR=571522ae N=0 V=1 C=0 Z=0
# RANDOM ERROR  A=7598d3eb B=bfdde87f OP=11 @602000
#  Got   R=b5baeb6c N=1 V=1 C=0 Z=0
#  ExpectR=b5baeb6c N=1 V=1 C=1 Z=0
# RANDOM ERROR  A=9762be2e B=faafa0f5 OP=11 @603000
#  Got   R=9cb31d39 N=1 V=0 C=0 Z=0
#  ExpectR=9cb31d39 N=1 V=0 C=1 Z=0
# RANDOM ERROR  A=a1a64a43 B=2bf16357 OP=11 @604000
#  Got   R=75b4e6ec N=0 V=1 C=1 Z=0
#  ExpectR=75b4e6ec N=0 V=1 C=0 Z=0
# RANDOM ERROR  A=8d0cb81a B=4e86199d OP=11 @607000
#  Got   R=3e869e7d N=0 V=1 C=1 Z=0
#  ExpectR=3e869e7d N=0 V=1 C=0 Z=0
# RANDOM ERROR  A=f42782e8 B=06fddf0d OP=11 @608000
#  Got   R=ed29a3db N=1 V=0 C=1 Z=0
#  ExpectR=ed29a3db N=1 V=0 C=0 Z=0
# RANDOM ERROR  A=efcf68df B=f7624eee OP=11 @610000
#  Got   R=f86d19f1 N=1 V=0 C=0 Z=0
#  ExpectR=f86d19f1 N=1 V=0 C=1 Z=0
# RANDOM ERROR  A=d22472a4 B=922de424 OP=11 @613000
#  Got   R=3ff68e80 N=0 V=0 C=1 Z=0
#  ExpectR=3ff68e80 N=0 V=0 C=0 Z=0
# RANDOM ERROR  A=d3196ea6 B=c36d3e86 OP=11 @615000
#  Got   R=0fac3020 N=0 V=0 C=1 Z=0
#  ExpectR=0fac3020 N=0 V=0 C=0 Z=0
# RANDOM ERROR  A=4191d583 B=bccd1079 OP=11 @616000
#  Got   R=84c4c50a N=1 V=1 C=0 Z=0
#  ExpectR=84c4c50a N=1 V=1 C=1 Z=0
# RANDOM ERROR  A=42ce8785 B=818d0203 OP=11 @618000
#  Got   R=c1418582 N=1 V=1 C=0 Z=0
#  ExpectR=c1418582 N=1 V=1 C=1 Z=0
# RANDOM ERROR  A=9bf8b437 B=3a70ef74 OP=11 @620000
#  Got   R=6187c4c3 N=0 V=1 C=1 Z=0
#  ExpectR=6187c4c3 N=0 V=1 C=0 Z=0
# RANDOM ERROR  A=3e3b9d7c B=788fb1f1 OP=11 @623000
#  Got   R=c5abeb8b N=1 V=0 C=0 Z=0
#  ExpectR=c5abeb8b N=1 V=0 C=1 Z=0
# RANDOM ERROR  A=e004a0c0 B=3f274b7e OP=11 @632000
#  Got   R=a0dd5542 N=1 V=0 C=1 Z=0
#  ExpectR=a0dd5542 N=1 V=0 C=0 Z=0
# RANDOM ERROR  A=20eae741 B=2eafd95d OP=11 @634000
#  Got   R=f23b0de4 N=1 V=0 C=0 Z=0
#  ExpectR=f23b0de4 N=1 V=0 C=1 Z=0
# RANDOM ERROR  A=52ec09a5 B=69fcb5d3 OP=11 @635000
#  Got   R=e8ef53d2 N=1 V=0 C=0 Z=0
#  ExpectR=e8ef53d2 N=1 V=0 C=1 Z=0
# RANDOM ERROR  A=bfbb6c7f B=77b957ef OP=11 @636000
#  Got   R=48021490 N=0 V=1 C=1 Z=0
#  ExpectR=48021490 N=0 V=1 C=0 Z=0
# RANDOM ERROR  A=6c776fd8 B=59ef51b3 OP=11 @638000
#  Got   R=12881e25 N=0 V=0 C=1 Z=0
#  ExpectR=12881e25 N=0 V=0 C=0 Z=0
# RANDOM ERROR  A=6de21ddb B=93f56c27 OP=11 @643000
